<?xml version="1.0" encoding="UTF-8" standalone="no"?>
<svg
   xmlns:dc="http://purl.org/dc/elements/1.1/"
   xmlns:cc="http://creativecommons.org/ns#"
   xmlns:rdf="http://www.w3.org/1999/02/22-rdf-syntax-ns#"
   xmlns:svg="http://www.w3.org/2000/svg"
   xmlns="http://www.w3.org/2000/svg"
   xmlns:sodipodi="http://sodipodi.sourceforge.net/DTD/sodipodi-0.dtd"
   xmlns:inkscape="http://www.inkscape.org/namespaces/inkscape"
   width="64"
   height="64"
   version="1.1"
   id="svg14"
   sodipodi:docname="folder-cd.svg"
   inkscape:version="0.92.2 (5c3e80d, 2017-08-06)">
  <metadata
     id="metadata20">
    <rdf:RDF>
      <cc:Work
         rdf:about="">
        <dc:format>image/svg+xml</dc:format>
        <dc:type
           rdf:resource="http://purl.org/dc/dcmitype/StillImage" />
        <dc:title></dc:title>
      </cc:Work>
    </rdf:RDF>
  </metadata>
  <defs
     id="defs18">
    <marker
       inkscape:stockid="Arrow1Lstart"
       orient="auto"
       refY="0.0"
       refX="0.0"
       id="Arrow1Lstart"
       style="overflow:visible"
       inkscape:isstock="true">
      <path
         id="path829"
         d="M 0.0,0.0 L 5.0,-5.0 L -12.5,0.0 L 5.0,5.0 L 0.0,0.0 z "
         style="fill-rule:evenodd;stroke:#1d344f;stroke-width:1pt;stroke-opacity:1;fill:#1d344f;fill-opacity:1"
         transform="scale(0.8) translate(12.5,0)" />
    </marker>
  </defs>
  <sodipodi:namedview
     pagecolor="#ffffff"
     bordercolor="#666666"
     borderopacity="1"
     objecttolerance="10"
     gridtolerance="10"
     guidetolerance="10"
     inkscape:pageopacity="0"
     inkscape:pageshadow="2"
     inkscape:window-width="1920"
     inkscape:window-height="1048"
     id="namedview16"
     showgrid="false"
     inkscape:zoom="1"
     inkscape:cx="28.180797"
     inkscape:cy="24.340963"
     inkscape:window-x="1920"
     inkscape:window-y="32"
     inkscape:window-maximized="1"
     inkscape:current-layer="svg14"
     showguides="true"
     inkscape:guide-bbox="true">
    <inkscape:grid
       type="xygrid"
       id="grid829"
       empspacing="4" />
  </sodipodi:namedview>
  <rect
     style="opacity:0.2"
     width="50"
     height="32"
     x="7"
     y="24"
     rx="2.5"
     ry="2.5"
     id="rect2" />
  <path
     style="fill:#4877b1"
     d="M 7,44.5 C 7,45.885 8.115,47 9.5,47 H 54.5 C 55.885,47 57,45.885 57,44.5 V 17.5 C 57,16.115 55.885,15 54.5,15 H 29 V 12.5 C 29,11.115 27.885,10 26.5,10 H 9.5 C 8.115,10 7,11.115 7,12.5"
     id="path4" />
  <rect
     style="opacity:0.2"
     width="50"
     height="32"
     x="7"
     y="22"
     rx="2.5"
     ry="2.5"
     id="rect6" />
  <rect
     style="fill:#dcdcdc"
     width="44"
     height="20"
     x="10"
     y="18"
     rx="2.5"
     ry="2.5"
     id="rect8" />
  <rect
     style="fill:#5294e2"
     width="50"
     height="32"
     x="7"
     y="23"
     rx="2.5"
     ry="2.5"
     id="rect10" />
  <path
     style="opacity:0.1;fill:#ffffff"
     d="M 9.5,10 C 8.115,10 7,11.115 7,12.5 V 13.5 C 7,12.115 8.115,11 9.5,11 H 26.5 C 27.885,11 29,12.115 29,13.5 V 12.5 C 29,11.115 27.885,10 26.5,10 Z M 29,15 V 16 H 54.5 C 55.89,16 57,17.115 57,18.5 V 17.5 C 57,16.115 55.89,15 54.5,15 Z"
     id="path12" />
  <g
     id="g840">
    <circle
       r="13"
       cy="39"
       cx="32"
       id="path828"
       style="fill:#1d344f;stroke-width:1.18181801" />
    <circle
       cy="39"
       cx="32"
       id="path836"
       style="fill:#5294e2;stroke-width:1"
       r="4" />
  </g>
</svg>
