<svg width="24" height="24" version="1" xmlns="http://www.w3.org/2000/svg">
 <g transform="translate(1,1)">
  <path d="m11 1c-5.5115 0-10 4.489-10 10 0 5.512 4.489 10 10 10s10-4.488 10-10c0-5.511-4.488-10-10-10z" style="fill:#323232"/>
  <path d="m11 3.5a8 8 0 0 0-8 8 8 8 0 0 0 8 8 8 8 0 0 0 8-8 8 8 0 0 0-8-8zm-3.209 2.3554h3.0654l3.5196 8.951 1.5478-0.5039 0.5156 1.7334-3.338 0.964-2.245-5.6915-3.292 5.1875h-2.0644l4.5976-7.425-0.5156-1.4668h-1.791v-1.749z" opacity=".2"/>
  <path d="m11 3a8 8 0 0 0-8 8 8 8 0 0 0 8 8 8 8 0 0 0 8-8 8 8 0 0 0-8-8zm-3.209 2.3555h3.0655l3.5195 8.951 1.548-0.504 0.5155 1.7335-3.338 0.964-2.245-5.6915-3.292 5.1875h-2.0645l4.5975-7.4245-0.5155-1.467h-1.791v-1.749z" style="fill:#3c90f3"/>
 </g>
</svg>
